{
  "name": "Quest",
  "base": "PersistedModel",
  "strict": false,
  "idInjection": false,
  "options": {
    "validateUpsert": true
  },
  "properties": {
    "QID": {
      "type": "string",
      "id": true
    },
    "Name": {
      "type": "string",
      "required": true
    },
    "isSystem": {
      "type": "boolean"
    }
  },
  "validations": [],
  "relations": {
    "QandA": {
      "type": "hasMany",
      "model": "QandA",
      "foreignKey": "QID",
      "options": {
        "disableInclude": true
      }
    },
    "Project": {
      "type": "belongsTo",
      "model": "Project",
      "foreignKey": "ProjectId"
    },
    "verification": {
      "type": "belongsTo",
      "model": "Verification",
      "foreignKey": "VID"
    }
  },
  "acls": [],
  "methods": {}
}
